{
  "type": "service_account",
  "project_id": "goproject-310914",
  "private_key_id": "4b444610deb664efb57b7a776f5dfacbfae1e3db",
  "private_key": "-----BEGIN PRIVATE KEY-----\nMIIEvQIBADANBgkqhkiG9w0BAQEFAASCBKcwggSjAgEAAoIBAQC89yp2VXciJuOn\n9xxdiOgV2JsT6+Nswr8kW5xzYE6Yeb8ECPDXRWvCXvZ01UEg7W2zjDm1KXiD1zu6\nVuPL43Qug7AHz4zZgihp2tk0vDtbTtZTOqHe2ca/4M8VmgmQOk8GJxen5giogyq8\npkYLkLrbKZzmKyiV3+Sa2d9pkKd1nLXN6S/rjnnCBne2PEB/BHEZbOKwaYjVPbJo\nLJMUGqqfAZUmbQeKH6xSSf/Ku1hkqWhT3rxutPniTQ/RRGavg4LhEifFvbZRhBQB\nbgKdQnF90sF92BdYJUx8h4IrhJhzThdkgZY+nmzrqFiblR4gncUCwez70cqcISvb\n7u6mDKzBAgMBAAECggEAT1hfiZGodPwsYoZl8DaA8U9jCpHljHEXro4TGvUo+2g/\nl1OjwViif1q9lOBIuSlJA3fRcWro8j8pkrxSaXXn/nIIM7doNpqrGous4bJaICRx\n5T+84WTDSiV8/t6PvnJlZTl7+uGh6BQvmUgeKFQMyeLmwVUE9S2ugYETiPGXB1Bd\n48xMeerQXmgs7yKPOKlbp3H5zNo/RBfEJ+iwUReNPRiubD+C9rvDn9bJvLqtUcEX\nPrsa8Cv4F/c4Lz0RqOT7pUMSAm0aWeP7F3DMEgN9is2x1ybK5OIrLMHpwgMC2e0k\nFWycxIdyyyWDAF55HOdm0Yh+/t8B0RuPdYeJ/3jMQwKBgQDendzscCGiYCU3DE+s\nprS3cygzrkQEEsfrCnj/lI2d+pqsj3EP20llG12Su1v75Tr6vS6vDHe3/HDgU7SM\nKMno/twxlMF7b/gtJADDE9VbZGIEM25mj+jNcS2syHYVcH9wdr6Ow99cfqsGDIB/\nGATEARg0Tb7aWGtm/hUbEN/6qwKBgQDZTXPQxrSkgMr0hshhrDhMN6pr+UkAzhj9\ncRcLax+IimRa0LV8vmYG4T2Y4FCe2wORAsT31yh8gtCIRb9KKk3/4KtOGmgAMIUR\nrWSCEVqYr2ZcW0l14TDJwY4tAHCDg476jlOvvQ4PkanCKCPqTc+ENtlXo4K113Vx\npuT4lao2QwKBgGaE4qnMFeE2T80jEUocV5soIDp0pYQOthyK7SAeZH19XF/dix7X\nSNyUFqqtN/YwIdI471fT8Qo86iqUwc/ONPXk8Liwnc3fybXYH7W224nEF9OBb/Ux\nju+VkIhCpQbIkRfUx3rtv15UQyR8+2wMPp2ZN3FW4G6jS4rZthSJ1+wTAoGAdISQ\nVmFF2XNp4CYpah4TbeLnUdAwcesRAUzTg37kQK2cVAnXVtUtFgFOqxuUfymGxwnK\nHe7TubfXI0rq4FTA0DRjBpUoMPnTUIA+BXRStM5QP7N/N2MRaw2LM9wpeIthbj5E\n51WjJXwAn6gwYeFpJUbX0aNOYjzur4tC+Xwe8csCgYEArUuj1FX3hTX40auC6oFV\nETXHtiDnghZqiPSIcwL/bRvqN1vAOV6DcshI08EnS4M65WHU3+YEnELa8vU/esC9\nbZ1pWQsqp4mBlQnVwivUh138a/2PwRlLmeY8dCC62r69P3DjR0cMzbcoLpbMHBbq\njjtPUt0JLy/xfkO4E0ykyeE=\n-----END PRIVATE KEY-----\n",
  "client_email": "fsd-799@goproject-310914.iam.gserviceaccount.com",
  "client_id": "109923363825072379759",
  "auth_uri": "https://accounts.google.com/o/oauth2/auth",
  "token_uri": "https://oauth2.googleapis.com/token",
  "auth_provider_x509_cert_url": "https://www.googleapis.com/oauth2/v1/certs",
  "client_x509_cert_url": "https://www.googleapis.com/robot/v1/metadata/x509/fsd-799%40goproject-310914.iam.gserviceaccount.com"
}
